module gitlab.com/flimzy/testy

go 1.18

require (
	github.com/Masterminds/semver/v3 v3.2.1
	github.com/davecgh/go-spew v1.1.1
	github.com/google/go-cmp v0.6.0
	github.com/labstack/echo/v4 v4.12.0
	github.com/pkg/errors v0.9.1
	github.com/pmezard/go-difflib v1.0.0
)

require (
	github.com/labstack/gommon v0.4.2 // indirect
	github.com/mattn/go-colorable v0.1.13 // indirect
	github.com/mattn/go-isatty v0.0.20 // indirect
	github.com/valyala/bytebufferpool v1.0.0 // indirect
	github.com/valyala/fasttemplate v1.2.2 // indirect
	golang.org/x/crypto v0.31.0 // indirect
	golang.org/x/net v0.33.0 // indirect
	golang.org/x/sys v0.28.0 // indirect
	golang.org/x/text v0.21.0 // indirect
)
